{
    "packages": {
        "simonrennocks/is-odd": {
            "dev-master": {
                "name": "simonrennocks/is-odd",
                "version": "dev-master",
                "version_normalized": "9999999-dev",
                "source": {
                    "type": "git",
                    "url": "https://gitlab.com/simonrennocks/isodd.git",
                    "reference": "5ba2d15e3204a9ad0fcca45af2237fd72030470d"
                },
                "dist": {
                    "type": "zip",
                    "url": "https://gitlab.com/api/v4/projects/simonrennocks%2Fisodd/repository/archive.zip?sha=5ba2d15e3204a9ad0fcca45af2237fd72030470d",
                    "reference": "5ba2d15e3204a9ad0fcca45af2237fd72030470d",
                    "shasum": ""
                },
                "require": {
                    "php": ">=7.1.0"
                },
                "require-dev": {
                    "phpunit/phpunit": "~7.0"
                },
                "time": "2019-08-14T17:38:47+00:00",
                "type": "library",
                "autoload": {
                    "psr-0": {
                        "IsOdd": "src/"
                    }
                },
                "autoload-dev": {
                    "classmap": [
                        "tests"
                    ]
                },
                "license": [
                    "MIT"
                ],
                "authors": [
                    {
                        "name": "Simon Rennocks",
                        "email": "rennocks@gmail.com",
                        "homepage": "https://gitlab.com/simonrennocks/isodd"
                    }
                ],
                "description": "Computes whether a number is odd.",
                "keywords": [
                    "even",
                    "number",
                    "odd",
                    "utility"
                ],
                "support": {
                    "issues": "https://gitlab.com/simonrennocks/isodd/issues",
                    "source": "https://gitlab.com/simonrennocks/isodd"
                }
            }
        }
    }
}
